[
    {
        "name": "Milk",
        "price": 1.3,
        "quantity": "Bottle",
        "photo": "Milk"
    },
    {
        "name": "Eggs",
        "price": 2.1,
        "quantity": "12 ks",
        "photo": "Eggs"
    },
    {
        "name": "Peas",
        "price": 0.95,
        "quantity":"Package",
        "photo": "Peas"
    },
    {
        "name": "Beans",
        "price": 0.73,
        "quantity":"Can",
        "photo": "Beans"
    }
]
